{"failedCount":1,"prefixedPath":"classpath:features\/doGet.feature","packageQualifiedName":"features.doGet","loopIndex":-1,"relativePath":"features\/doGet.feature","scenarioResults":[{"sectionIndex":0,"stepResults":[{"result":{"nanos":5332400,"startTime":1712052397751,"endTime":1712052397756,"millis":5.3324,"status":"passed"},"step":{"line":6,"prefix":"Given","index":0,"text":"url resturl"},"stepLog":"03:06:37.647 select end is : dev \n"},{"result":{"nanos":1925100,"startTime":1712052397762,"endTime":1712052397764,"millis":1.9251,"status":"passed"},"step":{"comments":["#* def query = {id: '6815701'}"],"line":8,"prefix":"When","index":1,"text":"path '\/users'"}},{"result":{"nanos":1793728500,"startTime":1712052397790,"endTime":1712052399584,"millis":1793.7285,"status":"passed"},"step":{"comments":["#And params query"],"line":10,"prefix":"And","index":2,"text":"method GET"},"stepLog":"03:06:38.365 request:\n1 > GET https:\/\/gorest.co.in\/public\/v1\/users\n1 > Host: gorest.co.in\n1 > Connection: Keep-Alive\n1 > User-Agent: Apache-HttpClient\/4.5.12 (Java\/17.0.10)\n1 > Accept-Encoding: gzip,deflate\n\n\n03:06:39.506 response time in milliseconds: 1127\n1 < 200\n1 < Date: Tue, 02 Apr 2024 10:06:39 GMT\n1 < Content-Type: application\/json; charset=utf-8\n1 < Transfer-Encoding: chunked\n1 < Connection: keep-alive\n1 < Cache-Control: max-age=0, private, must-revalidate\n1 < etag: W\/\"575f75c5b18f6fd323ddf86f33cbddba\"\n1 < referrer-policy: strict-origin-when-cross-origin\n1 < vary: Origin\n1 < x-content-type-options: nosniff\n1 < x-download-options: noopen\n1 < x-frame-options: SAMEORIGIN\n1 < x-permitted-cross-domain-policies: none\n1 < x-request-id: 54ffdd6b-0502-4994-ada2-9453bba5f67e\n1 < x-runtime: 0.032054\n1 < x-xss-protection: 0\n1 < CF-Cache-Status: DYNAMIC\n1 < Report-To: {\"endpoints\":[{\"url\":\"https:\\\/\\\/a.nel.cloudflare.com\\\/report\\\/v4?s=oOYrfjJINiA16gpgmHDsS%2FgiTto0iVrVlnzAl%2F5Qa5JQR8JaWiuhYh5z7Cy7pP5dDf9JCvqwtmLF0YGhYt%2F667U%2FrSn1HEIddNYTYR08cYnIUk%2BkwnH4XjnMbagAtkw%3D\"}],\"group\":\"cf-nel\",\"max_age\":604800}\n1 < NEL: {\"success_fraction\":0,\"report_to\":\"cf-nel\",\"max_age\":604800}\n1 < Server: cloudflare\n1 < CF-RAY: 86e001e6fa590088-CDG\n1 < alt-svc: h3=\":443\"; ma=86400\n{\"meta\":{\"pagination\":{\"total\":2855,\"pages\":286,\"page\":1,\"limit\":10,\"links\":{\"previous\":null,\"current\":\"https:\/\/gorest.co.in\/public\/v1\/users?page=1\",\"next\":\"https:\/\/gorest.co.in\/public\/v1\/users?page=2\"}}},\"data\":[{\"id\":6819262,\"name\":\"Harinakshi Mishra\",\"email\":\"mishra_harinakshi@smitham-langosh.example\",\"gender\":\"female\",\"status\":\"active\"},{\"id\":6819261,\"name\":\"Rahul Ahuja\",\"email\":\"rahul_ahuja@frami.example\",\"gender\":\"female\",\"status\":\"inactive\"},{\"id\":6819258,\"name\":\"Chapal Kaur\",\"email\":\"kaur_chapal@toy.example\",\"gender\":\"female\",\"status\":\"inactive\"},{\"id\":6819256,\"name\":\"Bhooshit Mehrotra\",\"email\":\"mehrotra_bhooshit@lang-dooley.test\",\"gender\":\"male\",\"status\":\"inactive\"},{\"id\":6819254,\"name\":\"Bhudev Malik\",\"email\":\"malik_bhudev@dibbert.example\",\"gender\":\"male\",\"status\":\"active\"},{\"id\":6819253,\"name\":\"Sen. Manoj Prajapat\",\"email\":\"sen_manoj_prajapat@hoeger.test\",\"gender\":\"female\",\"status\":\"active\"},{\"id\":6819252,\"name\":\"Anuraag Gill\",\"email\":\"anuraag_gill@spencer.test\",\"gender\":\"female\",\"status\":\"active\"},{\"id\":6819250,\"name\":\"Rev. Divakar Desai\",\"email\":\"divakar_desai_rev@king-roob.test\",\"gender\":\"male\",\"status\":\"active\"},{\"id\":6819248,\"name\":\"Shakuntala Iyer\",\"email\":\"iyer_shakuntala@harvey.test\",\"gender\":\"female\",\"status\":\"inactive\"},{\"id\":6819247,\"name\":\"Giriraaj Naik\",\"email\":\"giriraaj_naik@stiedemann.test\",\"gender\":\"female\",\"status\":\"inactive\"}]}\n\n"},{"result":{"nanos":64600,"startTime":1712052399583,"endTime":1712052399583,"millis":0.0646,"status":"passed"},"step":{"line":11,"prefix":"Then","index":3,"text":"status 200"}},{"result":{"nanos":14815300,"startTime":1712052399584,"endTime":1712052399599,"millis":14.8153,"status":"passed"},"step":{"line":12,"prefix":"*","index":4,"text":"print response"},"stepLog":"03:06:39.596 [print] {\n  \"meta\": {\n    \"pagination\": {\n      \"total\": 2855,\n      \"pages\": 286,\n      \"page\": 1,\n      \"limit\": 10,\n      \"links\": {\n        \"previous\": null,\n        \"current\": \"https:\/\/gorest.co.in\/public\/v1\/users?page=1\",\n        \"next\": \"https:\/\/gorest.co.in\/public\/v1\/users?page=2\"\n      }\n    }\n  },\n  \"data\": [\n    {\n      \"id\": 6819262,\n      \"name\": \"Harinakshi Mishra\",\n      \"email\": \"mishra_harinakshi@smitham-langosh.example\",\n      \"gender\": \"female\",\n      \"status\": \"active\"\n    },\n    {\n      \"id\": 6819261,\n      \"name\": \"Rahul Ahuja\",\n      \"email\": \"rahul_ahuja@frami.example\",\n      \"gender\": \"female\",\n      \"status\": \"inactive\"\n    },\n    {\n      \"id\": 6819258,\n      \"name\": \"Chapal Kaur\",\n      \"email\": \"kaur_chapal@toy.example\",\n      \"gender\": \"female\",\n      \"status\": \"inactive\"\n    },\n    {\n      \"id\": 6819256,\n      \"name\": \"Bhooshit Mehrotra\",\n      \"email\": \"mehrotra_bhooshit@lang-dooley.test\",\n      \"gender\": \"male\",\n      \"status\": \"inactive\"\n    },\n    {\n      \"id\": 6819254,\n      \"name\": \"Bhudev Malik\",\n      \"email\": \"malik_bhudev@dibbert.example\",\n      \"gender\": \"male\",\n      \"status\": \"active\"\n    },\n    {\n      \"id\": 6819253,\n      \"name\": \"Sen. Manoj Prajapat\",\n      \"email\": \"sen_manoj_prajapat@hoeger.test\",\n      \"gender\": \"female\",\n      \"status\": \"active\"\n    },\n    {\n      \"id\": 6819252,\n      \"name\": \"Anuraag Gill\",\n      \"email\": \"anuraag_gill@spencer.test\",\n      \"gender\": \"female\",\n      \"status\": \"active\"\n    },\n    {\n      \"id\": 6819250,\n      \"name\": \"Rev. Divakar Desai\",\n      \"email\": \"divakar_desai_rev@king-roob.test\",\n      \"gender\": \"male\",\n      \"status\": \"active\"\n    },\n    {\n      \"id\": 6819248,\n      \"name\": \"Shakuntala Iyer\",\n      \"email\": \"iyer_shakuntala@harvey.test\",\n      \"gender\": \"female\",\n      \"status\": \"inactive\"\n    },\n    {\n      \"id\": 6819247,\n      \"name\": \"Giriraaj Naik\",\n      \"email\": \"giriraaj_naik@stiedemann.test\",\n      \"gender\": \"female\",\n      \"status\": \"inactive\"\n    }\n  ]\n}\n \n"},{"result":{"nanos":12498000,"startTime":1712052399599,"endTime":1712052399611,"millis":12.498,"status":"passed"},"step":{"line":13,"prefix":"*","index":5,"text":"def count = response.length"}},{"result":{"nanos":3682200,"startTime":1712052399611,"endTime":1712052399615,"millis":3.6822,"status":"passed"},"step":{"line":14,"prefix":"*","index":6,"text":"print count"},"stepLog":"03:06:39.615 [print] null \n"},{"result":{"nanos":40867300,"errorMessage":"match failed: EQUALS\n  $ | data types don't match (NULL:NUMBER)\n  null\n  1\n\nclasspath:features\/doGet.feature:15","startTime":1712052399615,"endTime":1712052399656,"millis":40.8673,"status":"failed"},"step":{"line":15,"prefix":"*","index":7,"text":"match count == 1"},"stepLog":"03:06:39.661 classpath:features\/doGet.feature:15\n* match count == 1\nmatch failed: EQUALS\n  $ | data types don't match (NULL:NUMBER)\n  null\n  1\n\nclasspath:features\/doGet.feature:15\n"}],"line":5,"description":"","durationMillis":1872.9134,"failed":true,"error":"match failed: EQUALS\n  $ | data types don't match (NULL:NUMBER)\n  null\n  1\n\nclasspath:features\/doGet.feature:15","executorName":"main","name":"test get services","startTime":1712052397133,"refId":"[1:5]","endTime":1712052399661,"exampleIndex":-1},{"sectionIndex":1,"stepResults":[{"result":{"nanos":571500,"startTime":1712052399735,"endTime":1712052399736,"millis":0.5715,"status":"passed"},"step":{"line":20,"prefix":"Given","index":0,"text":"url resturl"},"stepLog":"03:06:39.729 select end is : dev \n"},{"result":{"nanos":1006900,"startTime":1712052399736,"endTime":1712052399737,"millis":1.0069,"status":"passed"},"step":{"line":21,"prefix":"When","index":1,"text":"path '\/posts'"}},{"result":{"nanos":1112599200,"startTime":1712052399738,"endTime":1712052400851,"millis":1112.5992,"status":"passed"},"step":{"line":22,"prefix":"And","index":2,"text":"method GET"},"stepLog":"03:06:39.742 request:\n1 > GET https:\/\/gorest.co.in\/public\/v1\/posts\n1 > Host: gorest.co.in\n1 > Connection: Keep-Alive\n1 > User-Agent: Apache-HttpClient\/4.5.12 (Java\/17.0.10)\n1 > Accept-Encoding: gzip,deflate\n\n\n03:06:40.842 response time in milliseconds: 1096\n1 < 200\n1 < Date: Tue, 02 Apr 2024 10:06:40 GMT\n1 < Content-Type: application\/json; charset=utf-8\n1 < Transfer-Encoding: chunked\n1 < Connection: keep-alive\n1 < Cache-Control: max-age=0, private, must-revalidate\n1 < etag: W\/\"4a222a9747150abe613ce1e8885703d7\"\n1 < referrer-policy: strict-origin-when-cross-origin\n1 < vary: Origin\n1 < x-content-type-options: nosniff\n1 < x-download-options: noopen\n1 < x-frame-options: SAMEORIGIN\n1 < x-permitted-cross-domain-policies: none\n1 < x-request-id: c5f63ff7-5afe-4f70-987b-3bc042b1b4ae\n1 < x-runtime: 0.082831\n1 < x-xss-protection: 0\n1 < CF-Cache-Status: DYNAMIC\n1 < Report-To: {\"endpoints\":[{\"url\":\"https:\\\/\\\/a.nel.cloudflare.com\\\/report\\\/v4?s=Z0e%2FAnZXlx0baKS7hSRfH6yCl5nhj060wMefkylv3LaYaRWY4dgxRywdWmwAadcxJ1UWBnb8RuoaynbpKN14WiJL9l3RCQK13O05cbUNV2T8cfHjwLw0aRQ%2BIm7cFSg%3D\"}],\"group\":\"cf-nel\",\"max_age\":604800}\n1 < NEL: {\"success_fraction\":0,\"report_to\":\"cf-nel\",\"max_age\":604800}\n1 < Server: cloudflare\n1 < CF-RAY: 86e001ed29500498-CDG\n1 < alt-svc: h3=\":443\"; ma=86400\n{\"meta\":{\"pagination\":{\"total\":2971,\"pages\":298,\"page\":1,\"limit\":10,\"links\":{\"previous\":null,\"current\":\"https:\/\/gorest.co.in\/public\/v1\/posts?page=1\",\"next\":\"https:\/\/gorest.co.in\/public\/v1\/posts?page=2\"}}},\"data\":[{\"id\":116545,\"user_id\":6819294,\"title\":\"Rem conor aptus substantia admiratio.\",\"body\":\"Asper ventito accusamus. Statim vomica aperiam. Articulus id denique. Centum ver arbor. Talus textor necessitatibus. Facere vitiosus doloremque. Debeo deserunt timor. Careo chirographum placeat. Turba aspicio turpe. Cubitum ultra casus. Dolore adficio antepono. Trepide summisse porro. Aspicio vesica cognomen. Tribuo reprehenderit tondeo. Aetas vero spiculum. Voluptatum tabula repudiandae. Civitas modi vilitas. Avarus provident maxime.\"},{\"id\":116544,\"user_id\":6819291,\"title\":\"Audax aspicio aliquam cribro est somnus.\",\"body\":\"Dolore est apud. Vicinus cum curriculum. Tricesimus theatrum tui. Theologus cursim vorago. Adiuvo somnus aedificium. Deprimo quae curvo. Comprehendo arto compono. Curtus qui velit. Aveho caput cenaculum. Sono civis taedium. Absconditus maiores trepide. Cernuus alius architecto. Vito apud ullam. Subseco vomica tamquam. Qui alo amoveo. Cras constans beneficium. Omnis enim nesciunt. Brevis degero solitudo. Nulla theologus curso.\"},{\"id\":116543,\"user_id\":6819291,\"title\":\"Defetiscor consectetur veniam ver vel valetudo auxilium vinco.\",\"body\":\"Totam adimpleo velum. Cibo deduco aurum. Aveho patruus cruentus. Concedo velum sopor. Amet triduana modi. Tamquam ullam virtus. Aut voluptatem sint. Tunc aut antepono. Ut aduro bellicus. Calculus templum sperno. Tricesimus apto patrocinor. Pecunia succurro tabesco. Adnuo terebro demergo. Tergo deripio acsi. Quibusdam vero adnuo.\"},{\"id\":116540,\"user_id\":6819289,\"title\":\"Crux annus cupiditate et necessitatibus.\",\"body\":\"Apostolus valeo error. Somniculosus vulgivagus sunt. Conforto corona amet. Stabilis ventosus aetas. Adduco patria pariatur. Cinis arx voluptatem. Pecco sed harum. Pecunia tristis sonitus. Aliqua vulpes amplus. Quae constans stips. Antepono impedit dolorum.\"},{\"id\":116539,\"user_id\":6819287,\"title\":\"Crudelis aestivus acervus tempore turbo.\",\"body\":\"Sponte qui deleo. Qui caterva cupressus. Harum animi tripudio. Vester cotidie cubicularis. Ademptio ago timor. Decretum in arca. Tum turba convoco. Tolero tondeo quae. Crudelis aequitas adhaero. Vorago excepturi voro.\"},{\"id\":116537,\"user_id\":6819285,\"title\":\"Conculco theca deficio tandem adsuesco cunae calco vado.\",\"body\":\"Ante accommodo ex. Casso suggero solium. Timidus despecto tantum. Sumo aestus deleo. Vomer amo doloremque. Tempore quas molestiae. Alienus mollitia vox. Vis defleo socius. Alias caput titulus. Cuius maiores umquam. Amplexus utpote cohibeo. Speculum verbum deorsum. Compono tubineus acquiro.\"},{\"id\":116531,\"user_id\":6819281,\"title\":\"Curiositas tendo totidem admitto et.\",\"body\":\"Praesentium statim callide. Qui tabula atqui. Tracto arca corrigo. Voluptatibus tamisium coepi. Censura volo clam. Adstringo cornu atrocitas. Toties vivo sed. Repellat alveus templum. Angustus veritatis cauda. Est ulterius conventus. Facilis avoco defaeco. Ciminatio arbor tertius. Caterva deserunt adeo. Spes tutis approbo. Uter cilicium considero. Subseco curriculum aeternus. Quas statim sumo. Suus magnam eum. Qui solitudo varietas.\"},{\"id\":116530,\"user_id\":6819281,\"title\":\"Combibo aspernatur auditor deprimo patruus ut dolorum conitor quisquam.\",\"body\":\"Cuius et delectus. Titulus aggero consequuntur. Demum succurro sit. Virtus sursum ea. Caterva tibi arx. Voco similique non. Deficio aut tempora. Verbera usus vivo. Derideo ex crinis. Textilis torrens vester. Vado umquam tantum. Acceptus turpis acervus. Aeger mollitia tracto. Corrigo accendo curo. Vitae vilicus suasoria. Et nihil ascit.\"},{\"id\":116520,\"user_id\":6819274,\"title\":\"Vel textor villa sonitus cenaculum facilis cito sui cohors.\",\"body\":\"Communis confugo adsum. Valetudo amplexus aut. Laboriosam ceno magni. Vilicus vero voluptatem. Decretum adamo audacia. Vito curvus video. Utroque creber deprecator. Pecus comitatus temeritas. Tactus infit cilicium. Compono aegre minima. Paens nobis cribro. Summopere combibo libero. Error arbor nostrum. Apto itaque complectus. Comitatus teneo velum. Modi quae absorbeo. Depraedor beneficium sto.\"},{\"id\":116519,\"user_id\":6819270,\"title\":\"Cur vigilo alter sint theologus vicissitudo dedecor quia.\",\"body\":\"Delectatio custodia dapifer. Ante confero omnis. Subvenio vociferor cito. Adimpleo trado paulatim. Beatus acervus cohors. Concedo triginta cultura. Calco cum consequatur. Stipes urbanus arma. Pauci umquam amplexus. Voluptatum nihil admoveo. Sonitus crepusculum sumptus. Verecundia bibo tergum. Synagoga velum vinculum. Custodia strenuus capillus. Adficio ex curo. Contra thermae velit. Est curso collum. Et umerus clementia. Volup ut sponte.\"}]}\n\n"},{"result":{"nanos":19600,"startTime":1712052400851,"endTime":1712052400851,"millis":0.0196,"status":"passed"},"step":{"line":23,"prefix":"Then","index":3,"text":"status 200"}},{"result":{"nanos":5735400,"startTime":1712052400851,"endTime":1712052400857,"millis":5.7354,"status":"passed"},"step":{"line":24,"prefix":"*","index":4,"text":"print response"},"stepLog":"03:06:40.857 [print] {\n  \"meta\": {\n    \"pagination\": {\n      \"total\": 2971,\n      \"pages\": 298,\n      \"page\": 1,\n      \"limit\": 10,\n      \"links\": {\n        \"previous\": null,\n        \"current\": \"https:\/\/gorest.co.in\/public\/v1\/posts?page=1\",\n        \"next\": \"https:\/\/gorest.co.in\/public\/v1\/posts?page=2\"\n      }\n    }\n  },\n  \"data\": [\n    {\n      \"id\": 116545,\n      \"user_id\": 6819294,\n      \"title\": \"Rem conor aptus substantia admiratio.\",\n      \"body\": \"Asper ventito accusamus. Statim vomica aperiam. Articulus id denique. Centum ver arbor. Talus textor necessitatibus. Facere vitiosus doloremque. Debeo deserunt timor. Careo chirographum placeat. Turba aspicio turpe. Cubitum ultra casus. Dolore adficio antepono. Trepide summisse porro. Aspicio vesica cognomen. Tribuo reprehenderit tondeo. Aetas vero spiculum. Voluptatum tabula repudiandae. Civitas modi vilitas. Avarus provident maxime.\"\n    },\n    {\n      \"id\": 116544,\n      \"user_id\": 6819291,\n      \"title\": \"Audax aspicio aliquam cribro est somnus.\",\n      \"body\": \"Dolore est apud. Vicinus cum curriculum. Tricesimus theatrum tui. Theologus cursim vorago. Adiuvo somnus aedificium. Deprimo quae curvo. Comprehendo arto compono. Curtus qui velit. Aveho caput cenaculum. Sono civis taedium. Absconditus maiores trepide. Cernuus alius architecto. Vito apud ullam. Subseco vomica tamquam. Qui alo amoveo. Cras constans beneficium. Omnis enim nesciunt. Brevis degero solitudo. Nulla theologus curso.\"\n    },\n    {\n      \"id\": 116543,\n      \"user_id\": 6819291,\n      \"title\": \"Defetiscor consectetur veniam ver vel valetudo auxilium vinco.\",\n      \"body\": \"Totam adimpleo velum. Cibo deduco aurum. Aveho patruus cruentus. Concedo velum sopor. Amet triduana modi. Tamquam ullam virtus. Aut voluptatem sint. Tunc aut antepono. Ut aduro bellicus. Calculus templum sperno. Tricesimus apto patrocinor. Pecunia succurro tabesco. Adnuo terebro demergo. Tergo deripio acsi. Quibusdam vero adnuo.\"\n    },\n    {\n      \"id\": 116540,\n      \"user_id\": 6819289,\n      \"title\": \"Crux annus cupiditate et necessitatibus.\",\n      \"body\": \"Apostolus valeo error. Somniculosus vulgivagus sunt. Conforto corona amet. Stabilis ventosus aetas. Adduco patria pariatur. Cinis arx voluptatem. Pecco sed harum. Pecunia tristis sonitus. Aliqua vulpes amplus. Quae constans stips. Antepono impedit dolorum.\"\n    },\n    {\n      \"id\": 116539,\n      \"user_id\": 6819287,\n      \"title\": \"Crudelis aestivus acervus tempore turbo.\",\n      \"body\": \"Sponte qui deleo. Qui caterva cupressus. Harum animi tripudio. Vester cotidie cubicularis. Ademptio ago timor. Decretum in arca. Tum turba convoco. Tolero tondeo quae. Crudelis aequitas adhaero. Vorago excepturi voro.\"\n    },\n    {\n      \"id\": 116537,\n      \"user_id\": 6819285,\n      \"title\": \"Conculco theca deficio tandem adsuesco cunae calco vado.\",\n      \"body\": \"Ante accommodo ex. Casso suggero solium. Timidus despecto tantum. Sumo aestus deleo. Vomer amo doloremque. Tempore quas molestiae. Alienus mollitia vox. Vis defleo socius. Alias caput titulus. Cuius maiores umquam. Amplexus utpote cohibeo. Speculum verbum deorsum. Compono tubineus acquiro.\"\n    },\n    {\n      \"id\": 116531,\n      \"user_id\": 6819281,\n      \"title\": \"Curiositas tendo totidem admitto et.\",\n      \"body\": \"Praesentium statim callide. Qui tabula atqui. Tracto arca corrigo. Voluptatibus tamisium coepi. Censura volo clam. Adstringo cornu atrocitas. Toties vivo sed. Repellat alveus templum. Angustus veritatis cauda. Est ulterius conventus. Facilis avoco defaeco. Ciminatio arbor tertius. Caterva deserunt adeo. Spes tutis approbo. Uter cilicium considero. Subseco curriculum aeternus. Quas statim sumo. Suus magnam eum. Qui solitudo varietas.\"\n    },\n    {\n      \"id\": 116530,\n      \"user_id\": 6819281,\n      \"title\": \"Combibo aspernatur auditor deprimo patruus ut dolorum conitor quisquam.\",\n      \"body\": \"Cuius et delectus. Titulus aggero consequuntur. Demum succurro sit. Virtus sursum ea. Caterva tibi arx. Voco similique non. Deficio aut tempora. Verbera usus vivo. Derideo ex crinis. Textilis torrens vester. Vado umquam tantum. Acceptus turpis acervus. Aeger mollitia tracto. Corrigo accendo curo. Vitae vilicus suasoria. Et nihil ascit.\"\n    },\n    {\n      \"id\": 116520,\n      \"user_id\": 6819274,\n      \"title\": \"Vel textor villa sonitus cenaculum facilis cito sui cohors.\",\n      \"body\": \"Communis confugo adsum. Valetudo amplexus aut. Laboriosam ceno magni. Vilicus vero voluptatem. Decretum adamo audacia. Vito curvus video. Utroque creber deprecator. Pecus comitatus temeritas. Tactus infit cilicium. Compono aegre minima. Paens nobis cribro. Summopere combibo libero. Error arbor nostrum. Apto itaque complectus. Comitatus teneo velum. Modi quae absorbeo. Depraedor beneficium sto.\"\n    },\n    {\n      \"id\": 116519,\n      \"user_id\": 6819270,\n      \"title\": \"Cur vigilo alter sint theologus vicissitudo dedecor quia.\",\n      \"body\": \"Delectatio custodia dapifer. Ante confero omnis. Subvenio vociferor cito. Adimpleo trado paulatim. Beatus acervus cohors. Concedo triginta cultura. Calco cum consequatur. Stipes urbanus arma. Pauci umquam amplexus. Voluptatum nihil admoveo. Sonitus crepusculum sumptus. Verecundia bibo tergum. Synagoga velum vinculum. Custodia strenuus capillus. Adficio ex curo. Contra thermae velit. Est curso collum. Et umerus clementia. Volup ut sponte.\"\n    }\n  ]\n}\n \n"},{"result":{"nanos":1968400,"startTime":1712052400857,"endTime":1712052400859,"millis":1.9684,"status":"passed"},"step":{"line":25,"prefix":"*","index":5,"text":"def count = response.length"}},{"result":{"nanos":1881900,"startTime":1712052400860,"endTime":1712052400862,"millis":1.8819,"status":"passed"},"step":{"line":26,"prefix":"*","index":6,"text":"print count"},"stepLog":"03:06:40.861 [print] null \n"}],"executorName":"main","line":19,"name":"test post services","description":"","durationMillis":1123.7829,"startTime":1712052399723,"failed":false,"refId":"[2:19]","endTime":1712052400861,"exampleIndex":-1}],"callDepth":0,"name":"get microservices testing","description":"","resultDate":"2024-04-02 03:06:40 AM","durationMillis":2996.6963,"passedCount":1}